Adw-1
DBus-1.0
DBusGLib-1.0
Flatpak-1.0
GLib-2.0
GModule-2.0
GObject-2.0
Gcr-4
Gdk-4.0
GdkPixbuf-2.0
GdkPixdata-2.0
GdkWayland-4.0
GdkX11-4.0
Gio-2.0
Graphene-1.0
Gsk-4.0
Gst-1.0
GstBase-1.0
GstCheck-1.0
GstController-1.0
GstNet-1.0
Gtk-4.0
GtkSource-5
HarfBuzz-0.0
Pango-1.0
PangoCairo-1.0
PangoFT2-1.0
PangoFc-1.0
PangoOT-1.0
PangoXft-1.0
Shumate-1.0
Soup-3.0
Vte-3.91
WebKit-6.0
WebKitWebProcessExtension-6.0
Xdp-1.0
XdpGtk4-1.0
